module github.com/delving/rapid-saas

require (
	github.com/AndreasBriese/bbloom v0.0.0-20170702084017-28f7e881ca57
	github.com/OneOfOne/xxhash v1.2.2
	github.com/allegro/bigcache v1.1.0
	github.com/asdine/storm v1.1.0
	github.com/beorn7/perks v0.0.0-20180321164747-3a771d992973
	github.com/boltdb/bolt v0.0.0-20171120010307-9da317453632
	github.com/certifi/gocertifi v0.0.0-20180118203423-deb3ae2ef261
	github.com/davecgh/go-spew v1.1.0
	github.com/deiu/gon3 v0.0.0-20170627184619-f84eb1e0bd62
	github.com/deiu/rdf2go v0.0.0-20170627184725-ba3ab40de496
	github.com/delving/rapid v0.0.0-20180405203954-022f7f68ce75
	github.com/dgraph-io/badger v0.0.0-20180406055407-deb140b63781
	github.com/dgryski/go-farm v0.0.0-20180109070241-2de33835d102
	github.com/die-net/lrucache v0.0.0-20171111232917-04b9315ab7a6
	github.com/disintegration/imaging v1.3.0
	github.com/evalphobia/logrus_sentry v0.4.2
	github.com/fsnotify/fsnotify v1.4.7
	github.com/gammazero/workerpool v0.0.0-20180103203609-079e51c30502
	github.com/getsentry/raven-go v0.0.0-20180121060056-563b81fc02b7
	github.com/go-chi/chi v3.3.2+incompatible
	github.com/go-chi/cors v1.0.0
	github.com/go-chi/docgen v1.0.2
	github.com/go-chi/render v0.0.0-20171231234154-8c8c7a43d054
	github.com/golang/protobuf v1.1.0
	github.com/google/btree v0.0.0-20180124185431-e89373fe6b4a
	github.com/google/go-cmp v0.2.0
	github.com/google/gofuzz v0.0.0-20170612174753-24818f796faf
	github.com/gorilla/schema v1.0.2
	github.com/gregjones/httpcache v0.0.0-20171119193500-2bcd89a1743f
	github.com/hashicorp/hcl v0.0.0-20171017181929-23c074d0eceb
	github.com/inconshreveable/mousetrap v1.0.0
	github.com/kiivihal/goharvest v0.0.0-20180416075113-db30333e48f7
	github.com/kiivihal/rdf2go v0.1.2
	github.com/knakk/digest v0.0.0-20160404164910-fd45becddc49
	github.com/knakk/rdf v0.0.0-20171130200148-b6ee24f8f40f
	github.com/knakk/sparql v0.0.0-20170625101756-3de19ad6a5dc
	github.com/labstack/gommon v0.0.0-20170925052817-57409ada9da0
	github.com/linkeddata/gojsonld v0.0.0-20170418210642-4f5db6791326
	github.com/magiconair/properties v0.0.0-20171031211101-49d762b9817b
	github.com/mailru/easyjson v0.0.0-20171120080333-32fa128f234d
	github.com/mattn/go-colorable v0.0.0-20180115155639-6cc8b475d468
	github.com/mattn/go-isatty v0.0.0-20171107050531-6ca4dbf54d38
	github.com/matttproud/golang_protobuf_extensions v1.0.1
	github.com/mitchellh/go-homedir v0.0.0-20161203194507-b8bc1bf76747
	github.com/mitchellh/mapstructure v0.0.0-20180111000720-b4575eea38cc
	github.com/moul/http2curl v0.0.0-20170919181001-9ac6cf4d929b
	github.com/muesli/smartcrop v0.0.0-20171215203440-9032446b30f6
	github.com/nfnt/resize v0.0.0-20160724205520-891127d8d1b5
	github.com/olivere/elastic v6.1.23+incompatible
	github.com/onsi/ginkgo v1.4.0
	github.com/onsi/gomega v1.3.0
	github.com/parnurzeal/gorequest v0.2.15
	github.com/pelletier/go-toml v1.1.0
	github.com/petar/GoLLRB v0.0.0-20130427215148-53be0d36a84c
	github.com/peterbourgon/diskv v2.0.1+incompatible
	github.com/phyber/negroni-gzip v0.0.0-20180113114010-ef6356a5d029
	github.com/pkg/errors v0.8.0
	github.com/pmezard/go-difflib v1.0.0
	github.com/prometheus/client_golang v0.0.0-20180416233856-82f5ff156b29
	github.com/prometheus/client_model v0.0.0-20171117100541-99fa1f4be8e5
	github.com/prometheus/common v0.0.0-20180413074202-d0f7cd64bda4
	github.com/prometheus/procfs v0.0.0-20180408092902-8b1c2da0d56d
	github.com/rwcarlsen/goexif v0.0.0-20180110181140-17202558c8d9
	github.com/rychipman/easylex v0.0.0-20160129204217-49ee7767142f
	github.com/shurcooL/httpfs v0.0.0-20171119174359-809beceb2371
	github.com/shurcooL/vfsgen v0.0.0-20180414153424-bded413e56ef
	github.com/sirupsen/logrus v1.0.4
	github.com/spf13/afero v1.0.2
	github.com/spf13/cast v1.1.0
	github.com/spf13/cobra v0.0.0-20180115160933-0c34d16c3123
	github.com/spf13/jwalterweatherman v0.0.0-20180109140146-7c0cea34c8ec
	github.com/spf13/pflag v0.0.0-20171106142849-4c012f6dcd95
	github.com/spf13/viper v0.0.0-20171227194143-aafc9e6bc7b7
	github.com/stretchr/testify v1.2.2
	github.com/thoas/stats v0.0.0-20170926101542-37829025d224
	github.com/urfave/negroni v0.3.0
	github.com/valyala/bytebufferpool v0.0.0-20160817181652-e746df99fe4a
	github.com/valyala/fasttemplate v0.0.0-20170224212429-dcecefd839c4
	github.com/zbindenren/negroni-prometheus v0.1.1
	golang.org/x/crypto v0.0.0-20180127211104-1875d0a70c90
	golang.org/x/image v0.0.0-20171214225156-12117c17ca67
	golang.org/x/net v0.0.0-20180124060956-0ed95abb35c4
	golang.org/x/sys v0.0.0-20180126165840-ff2a66f350ce
	golang.org/x/text v0.0.0-20171227012246-e19ae1496984
	gopkg.in/VividCortex/ewma.v1 v1.1.1
	gopkg.in/cheggaaa/pb.v1 v1.0.0-20171129124420-c112833d014c
	gopkg.in/cheggaaa/pb.v2 v2.0.6
	gopkg.in/fatih/color.v1 v1.5.0
	gopkg.in/mattn/go-colorable.v0 v0.0.9
	gopkg.in/mattn/go-isatty.v0 v0.0.3
	gopkg.in/mattn/go-runewidth.v0 v0.0.2
	gopkg.in/yaml.v2 v2.0.0
	willnorris.com/go/gifresize v0.0.0-20160428232521-6a222229fa06
	willnorris.com/go/imageproxy v0.0.0-20171007031011-e7f9017674d9
)
