{
  "options": {
    "allowStealFocus": false,
    "authAPIVersion": 1,
    "bookmarkThumbHeight": 150,
    "bookmarkThumbWidth": 90,
    "dropEnabled": true,
    "footerPanelEnabled": true,
    "headerPanelEnabled": true,
    "leftPanelEnabled": true,
    "limitLocales": false,
    "metrics": [
      {
        "type": "watch",
        "minWidth": 0,
        "maxWidth": 312,
        "minHeight": 0,
        "maxHeight": 390
      },
      {
        "type": "mobileportrait",
        "minWidth": 312,
        "maxWidth": 415,
        "minHeight": 640,
        "maxHeight": 813
      },
      {
        "type": "mobilelandscape",
        "minWidth": 640,
        "maxWidth": 813,
        "minHeight": 360,
        "maxHeight": 415
      },
      {
        "type": "desktop",
        "minWidth": 800,
        "maxWidth": 100000,
        "minHeight": 415,
        "maxHeight": 100000
      }
    ],
    "multiSelectionMimeType": "application/zip",
    "navigatorEnabled": true,
    "openTemplate": "http://universalviewer.io?manifest={0}",
    "overrideFullScreen": false,
    "pagingEnabled": true,
    "pagingOptionEnabled": true,
    "pessimisticAccessControl": false,
    "preserveViewport": false,
    "rightPanelEnabled": true,
    "saveUserSettings": false,
    "clickToZoomEnabled": true,
    "searchWithinEnabled": true,
    "termsOfUseEnabled": true,
    "theme": "uv-nl-NL-theme",
    "tokenStorage": "session",
    "useArrowKeysToNavigate": false,
    "zoomToSearchResultEnabled": false,
    "zoomToBoundsEnabled": false
  },
  "modules": {
    "contentLeftPanel": {
      "options": {
        "autoExpandTreeEnabled": false,
        "autoExpandTreeIfFewerThan": 20,
        "branchNodesSelectable": false,
        "defaultToTreeEnabled": false,
        "defaultToTreeIfGreaterThan": 0,
        "elideCount": 40,
        "expandFullEnabled": true,
        "galleryThumbChunkedResizingThreshold": 400,
        "galleryThumbHeight": 320,
        "galleryThumbLoadPadding": 3,
        "galleryThumbWidth": 200,
        "oneColThumbHeight": 320,
        "oneColThumbWidth": 200,
        "pageModeEnabled": true,
        "panelAnimationDuration": 250,
        "panelCollapsedWidth": 30,
        "panelExpandedWidth": 255,
        "panelOpen": true,
        "tabOrder": "",
        "thumbsEnabled": true,
        "thumbsExtraHeight": 8,
        "thumbsImageFadeInDuration": 300,
        "thumbsLoadRange": 15,
        "treeEnabled": true,
        "twoColThumbHeight": 150,
        "twoColThumbWidth": 90
      },
      "content": {
        "collapse": "Inklappen",
        "collapseFull": "Volledig inklappen",
        "date": "Datum",
        "expand": "Uitklappen uitklappen",
        "expandFull": "Volledig uitklappen",
        "index": "index",
        "searchResult": "{0} zoek resultaat",
        "searchResults": "{0} zoek resultatate",
        "sortBy": "Soorteer bij:",
        "thumbnails": "Thumbnails",
        "title": "Titel",
        "volume": "Volume"
      }
    },
    "dialogue": {
      "topCloseButtonEnabled": false,
      "content": {
        "close": "Sluiten"
      }
    },
    "downloadDialogue": {
      "options": {
        "confinedImageSize": 1000,
        "currentViewDisabledPercentage": 90,
        "maxImageWidth": 5000,
        "optionsExplanatoryTextEnabled": false,
        "selectionEnabled": false
      },
      "content": {
        "currentViewAsJpg": "Current view {0} x {1}px (jpg)",
        "currentViewAsJpgExplanation": "Opens in a new window",
        "download": "Download",
        "downloadSelection": "Download Selection",
        "downloadSelectionExplanation": "Opens a dialogue to select which pages to download.",
        "editSettings": "Edit Settings",
        "entireDocument": "Entire document ({0})",
        "entireFileAsOriginal": "Entire file",
        "noneAvailable": "No download options are available.",
        "pagingNote": "Please turn off Two Page View for additional options.",
        "preview": "Preview",
        "title": "Download",
        "wholeImageHighRes": "Whole image {0} x {1}px ({2})",
        "wholeImageHighResExplanation": "Opens in a new window.",
        "wholeImagesHighRes": "Whole images ({0})",
        "wholeImagesHighResExplanation": "Opens in two new windows.",
        "wholeImageLowResAsJpg": "Whole image {0} x {1}px (jpg)",
        "wholeImageLowResAsJpgExplanation": "Opens in a new window."
      }
    },
    "footerPanel": {
      "options": {
        "autocompleteAllowWords": false,
        "bookmarkEnabled": false,
        "downloadEnabled": true,
        "embedEnabled": false,
        "feedbackEnabled": false,
        "fullscreenEnabled": true,
        "minimiseButtons": true,
        "moreInfoEnabled": true,
        "openEnabled": false,
        "printEnabled": false,
        "shareEnabled": true
      },
      "content": {
        "bookmark": "Add to bookmarks",
        "download": "Download",
        "embed": "Embed",
        "exitFullScreen": "Exit Full Screen",
        "feedback": "Feedback",
        "fullScreen": "Full Screen",
        "moreInfo": "Meer informatie",
        "open": "Open",
        "share": "Share"
      }
    },
    "genericDialogue": {
      "content": {
        "emptyValue": "please enter a value.",
        "invalidNumber": "Please enter a valid number.",
        "noMatches": "No matches were found.",
        "ok": "OK",
        "pageNotFound": "This item does not contain a page with the number you entered. Try switching the numbering mode to 'image'.",
        "refresh": "Refresh"
      }
    },
    "headerPanel": {
      "options": {
        "centerOptionsEnabled": true,
        "localeToggleEnabled": false,
        "settingsButtonEnabled": true
      }
    },
    "helpDialogue": {
      "content": {
        "text": "placeholder text",
        "title": "Hulp"
      }
    },
    "moreInfoRightPanel": {
      "options": {
        "canvasDisplayOrder": "",
        "canvasExclude": "",
        "copyToClipboardEnabled": false,
        "manifestDisplayOrder": "",
        "manifestExclude": "",
        "panelAnimationDuration": 250,
        "panelCollapsedWidth": 30,
        "panelExpandedWidth": 255,
        "panelOpen": true,
        "rtlLanguageCodes": "ar, ara, dv, div, he, heb, ur, urd",
        "showAllLanguages": false,
        "textLimit": 4,
        "textLimitType": "lines"
      },
      "content": {
        "attribution": "Attribution",
        "collapse": "Collapse Information",
        "collapseFull": "Collapse Gallery",
        "description": "Description",
        "expand": "Expand Information",
        "expandFull": "Expand Gallery",
        "holdingText": "Your module goes here!",
        "less": "less",
        "license": "License",
        "logo": "Logo",
        "more": "more",
        "noData": "No data to display",
        "page": "Page",
        "title": "Meer informatie",
        "manifestHeader": "About the item",
        "canvasHeader": "About the image",
        "copyToClipboard": "Copy to clipboard",
        "copiedToClipboard": "Copied to clipboard"
      }
    },
    "multiSelectDialogue": {
      "options": {
        "galleryThumbChunkedResizingEnabled": true,
        "galleryThumbChunkedResizingThreshold": 400,
        "galleryThumbHeight": 320,
        "galleryThumbLoadPadding": 3,
        "galleryThumbWidth": 200,
        "pageModeEnabled": true
      },
      "content": {
        "select": "Download",
        "selectAll": "Selecteer Alles",
        "title": "Selecteer Pagina's om te downloaded"
      }
    },
    "pagingHeaderPanel": {
      "options": {
        "autoCompleteBoxEnabled": true,
        "autocompleteAllowWords": false,
        "galleryButtonEnabled": true,
        "imageSelectionBoxEnabled": false,
        "pageModeEnabled": false,
        "pagingToggleEnabled": true
      },
      "content": {
        "close": "Sluiten",
        "emptyValue": "Please enter a value",
        "first": "Eerst",
        "firstImage": "Eerst Afbeelding",
        "firstPage": "Eerste Pagina",
        "folio": "Folio",
        "gallery": "Gallerij",
        "go": "Ga",
        "help": "Hulp",
        "image": "Afbeelding",
        "last": "Laatste",
        "lastImage": "Last Afbeelding",
        "lastPage": "Last Page",
        "next": "Volgende",
        "nextImage": "Volgende Afbeelding",
        "nextPage": "Volgende Pagina",
        "of": "van {0}",
        "oneUp": "Single page view",
        "page": "Pagina",
        "pageSearchLabel": "Zoek bij Pagina Nummer",
        "previous": "Vorige",
        "previousImage": "Vorige Afbeelding",
        "previousPage": "Vorige Pagina",
        "settings": "Instellingen",
        "twoUp": "Two page view"
      }
    },
    "seadragonCenterPanel": {
      "options": {
        "animationTime": 0.15,
        "autoHideControls": true,
        "attributionEnabled": true,
        "blendTime": 0,
        "constrainDuringPan": false,
        "controlsFadeAfterInactive": 1500,
        "controlsFadeDelay": 250,
        "controlsFadeLength": 250,
        "defaultZoomLevel": 0,
        "immediateRender": false,
        "maxZoomPixelRatio": 1.25,
        "navigatorPosition": "BOTTOM_RIGHT",
        "pageGap": 50,
        "showHomeControl": false,
        "trimAttributionCount": 150,
        "visibilityRatio": 0.5
      },
      "content": {
        "attribution": "Attribution",
        "goHome": "Go Home",
        "imageUnavailable": "Image Unavailable",
        "next": "Next",
        "previous": "Previous",
        "rotateRight": "Rotate Right",
        "zoomIn": "Zoom In",
        "zoomOut": "Zoom Out"
      }
    },
    "searchFooterPanel": {
      "options": {
        "elideDetailsTermsCount": 20,
        "elideResultsTermsCount": 10,
        "forceImageMode": false,
        "pageModeEnabled": true,
        "positionMarkerEnabled": true
      },
      "content": {
        "clearSearch": "Wis",
        "defaultLabel": "-",
        "displaying": "{0} {1} of {2}",
        "enterKeyword": "Enter Keyword",
        "image": "image",
        "imageCaps": "Image",
        "instanceFound": "1 instance of '{0}' found",
        "instancesFound": "{0} instances of '{1}' found",
        "nextResult": "Next Result",
        "page": "page",
        "pageCaps": "Page",
        "previousResult": "Previous Result",
        "print": "Print",
        "resultFoundFor": "result found for",
        "resultsFoundFor": "results found for",
        "searchWithin": "Search within this item:"
      }
    },
    "settingsDialogue": {
      "content": {
        "locale": "Locale",
        "navigatorEnabled": "Navigator Enabled",
        "clickToZoomEnabled": "Mouse Click To Zoom",
        "pagingEnabled": "Two Page View",
        "preserveViewport": "Preserve Zoom",
        "title": "Settings",
        "website": "<a href='https://github.com/universalviewer/universalviewer#contributors'>more info</a>"
      }
    },
    "shareDialogue": {
      "options": {
        "embedTemplate": "<iframe src=\"{0}\" width=\"{1}\" height=\"{2}\" allowfullscreen frameborder=\"0\"></iframe>",
        "instructionsEnabled": false,
        "shareFrameEnabled": true
      },
      "content": {
        "customSize": "custom",
        "embed": "Embed",
        "embedInstructions": "To embed this item in your own website, copy and paste the code below.",
        "height": "Height",
        "iiif": "IIIF Manifest",
        "share": "Share",
        "shareInstructions": "To share this item, copy the URL below.",
        "size": "Size:",
        "width": "Width"
      }
    },
    "authDialogue": {
      "content": {
        "cancel": "Cancel",
        "confirm": "Confirm"
      }
    },
    "clickThroughDialogue": {
      "content": {
        "viewTerms": "Read Full Terms and Conditions"
      }
    },
    "loginDialogue": {
      "content": {
        "login": "Login",
        "logout": "Logout",
        "cancel": "Cancel"
      }
    },
    "mobileFooterPanel": {
      "content": {
        "rotateRight": "Rotate Right",
        "moreInfo": "Meer Informatie",
        "zoomIn": "Zoom In",
        "zoomOut": "Zoom Out"
      }
    },
    "restrictedDialogue": {
      "content": {
        "cancel": "Annuleer"
      }
    }
  },
  "localisation": {
    "label": "Nederlands (NL)",
    "locales": [
      {
        "name": "nl-NL",
        "label": "Nederlands (NL)"
      },
      {
        "name": "en-GB",
        "label": "English (GB)"
      }
    ]
  },
  "content": {
    "authCORSError": "Your browser does not support CORS, please upgrade to view this content.",
    "authorisationFailedMessage": "Your log-in attempt did not appear to be successful. Please try again.",
    "canvasIndexOutOfRange": "Canvas index out of range.",
    "fallbackDegradedLabel": "Login",
    "fallbackDegradedMessage": "Please log in to view this content at full resolution.",
    "forbiddenResourceMessage": "Your current access rights are insufficient to view this image",
    "termsOfUse": "Terms of Use"
  }
}
